{
  "collectionName": "components_mediatext_media_texts",
  "info": {
    "displayName": "MediaUrl",
    "icon": "camera-retro",
    "description": ""
  },
  "options": {},
  "attributes": {
    "url": {
      "type": "string"
    },
    "media": {
      "type": "media",
      "multiple": false,
      "required": false,
      "allowedTypes": [
        "images",
        "files",
        "videos",
        "audios"
      ]
    }
  }
}
