{
  "collectionName": "components_begruessungsmedia_begruessungsmedias",
  "info": {
    "displayName": "Begruessungsmedia",
    "icon": "allergies",
    "description": ""
  },
  "options": {},
  "attributes": {
    "ueberschrift": {
      "type": "string"
    },
    "bild": {
      "type": "media",
      "multiple": false,
      "required": false,
      "allowedTypes": [
        "images",
        "files",
        "videos",
        "audios"
      ]
    },
    "video": {
      "type": "string"
    },
    "file": {
      "allowedTypes": [
        "images",
        "files",
        "videos",
        "audios"
      ],
      "type": "media",
      "multiple": false
    }
  }
}
