{
  "kind": "collectionType",
  "collectionName": "onlinemediens",
  "info": {
    "singularName": "onlinemedien",
    "pluralName": "onlinemediens",
    "displayName": "Onlinemedien",
    "description": ""
  },
  "options": {
    "draftAndPublish": true
  },
  "pluginOptions": {},
  "attributes": {
    "farbcode": {
      "type": "string"
    },
    "videoUrls": {
      "type": "json"
    },
    "socialmedien": {
      "type": "json"
    },
    "unternehmensprofil": {
      "type": "media",
      "multiple": false,
      "required": false,
      "allowedTypes": [
        "images",
        "files",
        "videos",
        "audios"
      ]
    },
    "flyer": {
      "type": "media",
      "multiple": false,
      "required": false,
      "allowedTypes": [
        "images",
        "files",
        "videos",
        "audios"
      ]
    },
    "bilder": {
      "type": "media",
      "multiple": true,
      "required": false,
      "allowedTypes": [
        "images",
        "files",
        "videos",
        "audios"
      ]
    },
    "unternehmensbeschreibung": {
      "type": "richtext"
    },
    "zoom": {
      "type": "json"
    },
    "text": {
      "type": "richtext"
    },
    "aussteller": {
      "type": "relation",
      "relation": "oneToOne",
      "target": "api::aussteller.aussteller",
      "inversedBy": "onlinemedien"
    }
  }
}
