{
  "collectionName": "components_multi_text_multi_texts",
  "info": {
    "displayName": "MultiText",
    "icon": "align-justify"
  },
  "options": {},
  "attributes": {
    "text": {
      "type": "string"
    }
  }
}
