{
  "collectionName": "components_unterpunkt_unterpunkts",
  "info": {
    "displayName": "Unterpunkt",
    "icon": "audio-description"
  },
  "options": {},
  "attributes": {
    "name": {
      "type": "string"
    },
    "online": {
      "type": "boolean"
    },
    "url": {
      "type": "string"
    }
  }
}
