{
  "kind": "collectionType",
  "collectionName": "fakultaets",
  "info": {
    "singularName": "fakultaet",
    "pluralName": "fakultaets",
    "displayName": "Fakultaet",
    "description": ""
  },
  "options": {
    "draftAndPublish": true
  },
  "pluginOptions": {},
  "attributes": {
    "studiengangs": {
      "type": "relation",
      "relation": "oneToMany",
      "target": "api::studiengang.studiengang"
    },
    "fakultaet": {
      "type": "enumeration",
      "enum": [
        "Betriebswirtschaft",
        "Elektrotechnik und Wirtschaftsingeneurwesen",
        "Informatik",
        "Interdisziplinäre Studien",
        "Maschinenbau",
        "Soziale Arbeit"
      ]
    }
  }
}
