{
  "kind": "collectionType",
  "collectionName": "jobarts",
  "info": {
    "singularName": "jobart",
    "pluralName": "jobarts",
    "displayName": "Jobart",
    "description": ""
  },
  "options": {
    "draftAndPublish": true
  },
  "pluginOptions": {},
  "attributes": {
    "art": {
      "type": "enumeration",
      "enum": [
        "Direkteinstieg",
        "Praktikum",
        "Abschlussarbeit",
        "Trainee",
        "Sonstiges",
        "Werksstudententätigkeit"
      ],
      "required": true
    }
  }
}
